AI & the Future of Work: Skills Demand Insights
…
Demand Trends

Prompt: The Demand Trend.

Variables: Independent: Salary_USD (continuous). Dependent: Demand_Level (High, Medium, Low).

Approach: Analyze demand by job title, focusing on stable/growing roles.

Findings: Project Manager and AI Researcher show high/medium demand.Human-centric skills (e.g., communication) and specialized expertise (e.g., machine learning) resist automation.

# A tibble: 30 × 5
# Groups:   Job_Title [10]
   Job_Title             Demand_Level Avg_Salary Remote_Percent Total_Jobs
   <fct>                 <chr>             <dbl>          <dbl>      <int>
 1 AI Researcher         Medium           89284.           26.7         15
 2 AI Researcher         Low             101250.           43.8         16
 3 AI Researcher         High             95774.           35           20
 4 Cybersecurity Analyst Medium           90848.           68.2         22
 5 Cybersecurity Analyst Low              91203.           57.9         19
 6 Cybersecurity Analyst High             84792.           57.1         14
 7 Data Scientist        Medium           94639.           52.9         17
 8 Data Scientist        Low              93520.           56.5         23
 9 Data Scientist        High             86908.           54.5         22
10 HR Manager            Medium           90879.           76.2         21
# ℹ 20 more rows
…
